FIRMWARE_VER:8.1
MACHINE_MODEL:RK3308
MACHINE_ID:007
MANUFACTURER: RK3308
MAGIC: 0x5041524B
ATAG: 0x00200800
MACHINE: 3308
CHECK_MASK: 0x80
PWR_HLD: 0,0,A,0,1
TYPE: GPT
CMDLINE:mtdparts=rk29xxnand:0x00001000@0x00002000(uboot),0x00001000@0x00003000(trust),0x00000800@0x00004000(misc),0x00006000@0x00004800(recovery),0x00004800@0x0000A800(boot),0x00016000@0x0000F000(rootfs),0x0000C000@0x00025000(oem),-@0x0031000(userdata:grow)
uuid:rootfs=614e0000-0000-4b53-8000-1d28000054a9
